[{"_links": {"self": {"href": "http://ie-pedestrian.run.aws-usw02-pr.ice.predix.io/v1/assets/1000000027/events?event-types=SFIN%2CSFOUT&start-ts=1461951548470&end-ts=9999999999999"}, "next-page": {"href": "http://ie-pedestrian.run.aws-usw02-pr.ice.predix.io/v1/assets/1000000027/events?event-types=SFIN&event-types=SFOUT&start-ts=1461951873577&end-ts=9999999999999&size=20"}}, "_embedded": {"events": [{"location-uid": "1345-crosswalk", "device-uid": "1345-1212", "timestamp": 1461951563189, "measures": [{"tag": "SFCNT", "unit": null, "value": 18.0}], "event-type": "SFOUT", "event-uid": "b95d60e3-dc17-4d00-8667-ebea489e6eb1", "properties": {}}, {"location-uid": "1345-crosswalk", "device-uid": "1345-1212", "timestamp": 1461951573257, "measures": [{"tag": "SFCNT", "unit": null, "value": 20.0}], "event-type": "SFIN", "event-uid": "59db2088-f9f6-457b-b634-491a35c445db", "properties": {}}, {"location-uid": "1345-crosswalk", "device-uid": "1345-1212", "timestamp": 1461951591261, "measures": [{"tag": "SFCNT", "unit": null, "value": 20.0}], "event-type": "SFOUT", "event-uid": "a0cbe729-28c4-466e-9b60-2b080d4115b6", "properties": {}}, {"location-uid": "1345-crosswalk", "device-uid": "1345-1212", "timestamp": 1461951616328, "measures": [{"tag": "SFCNT", "unit": null, "value": 17.0}], "event-type": "SFIN", "event-uid": "5dee883c-e7fb-414e-913a-6d636bfcaea9", "properties": {}}, {"location-uid": "1345-crosswalk", "device-uid": "1345-1212", "timestamp": 1461951635332, "measures": [{"tag": "SFCNT", "unit": null, "value": 17.0}], "event-type": "SFOUT", "event-uid": "f5986e2f-943b-4197-a6a7-da691f280cfa", "properties": {}}, {"location-uid": "1345-crosswalk", "device-uid": "1345-1212", "timestamp": 1461951642358, "measures": [{"tag": "SFCNT", "unit": null, "value": 18.0}], "event-type": "SFIN", "event-uid": "89b094c4-73c4-4331-a3a2-3d6f1e288563", "properties": {}}, {"location-uid": "1345-crosswalk", "device-uid": "1345-1212", "timestamp": 1461951658361, "measures": [{"tag": "SFCNT", "unit": null, "value": 18.0}], "event-type": "SFOUT", "event-uid": "0f98772d-2bb7-4e51-8720-628c4d9ec356", "properties": {}}, {"location-uid": "1345-crosswalk", "device-uid": "1345-1212", "timestamp": 1461951669369, "measures": [{"tag": "SFCNT", "unit": null, "value": 18.0}], "event-type": "SFIN", "event-uid": "77782df4-f6e8-472d-bcce-8eb96d7a85a8", "properties": {}}, {"location-uid": "1345-crosswalk", "device-uid": "1345-1212", "timestamp": 1461951685371, "measures": [{"tag": "SFCNT", "unit": null, "value": 18.0}], "event-type": "SFOUT", "event-uid": "7e261707-553b-4c1d-a5ef-6002d1e93680", "properties": {}}, {"location-uid": "1345-crosswalk", "device-uid": "1345-1212", "timestamp": 1461951691412, "measures": [{"tag": "SFCNT", "unit": null, "value": 18.0}], "event-type": "SFIN", "event-uid": "f25ae93a-605b-48f7-a917-31a13992aa75", "properties": {}}, {"location-uid": "1345-crosswalk", "device-uid": "1345-1212", "timestamp": 1461951709414, "measures": [{"tag": "SFCNT", "unit": null, "value": 18.0}], "event-type": "SFOUT", "event-uid": "972ce51a-c4c2-44c4-936c-cca54e52fb39", "properties": {}}, {"location-uid": "1345-crosswalk", "device-uid": "1345-1212", "timestamp": 1461951730437, "measures": [{"tag": "SFCNT", "unit": null, "value": 16.0}], "event-type": "SFIN", "event-uid": "d53f2165-29bb-474e-a776-cd8d158bb049", "properties": {}}, {"location-uid": "1345-crosswalk", "device-uid": "1345-1212", "timestamp": 1461951748440, "measures": [{"tag": "SFCNT", "unit": null, "value": 16.0}], "event-type": "SFOUT", "event-uid": "3815a1c5-3679-4f7f-9304-f44a99b46437", "properties": {}}, {"location-uid": "1345-crosswalk", "device-uid": "1345-1212", "timestamp": 1461951758487, "measures": [{"tag": "SFCNT", "unit": null, "value": 21.0}], "event-type": "SFIN", "event-uid": "eb094ecd-51ee-47d7-b387-d66326e910ad", "properties": {}}, {"location-uid": "1345-crosswalk", "device-uid": "1345-1212", "timestamp": 1461951777489, "measures": [{"tag": "SFCNT", "unit": null, "value": 21.0}], "event-type": "SFOUT", "event-uid": "a2f0efe5-62ef-4061-ba5a-2edf54283abb", "properties": {}}, {"location-uid": "1345-crosswalk", "device-uid": "1345-1212", "timestamp": 1461951801513, "measures": [{"tag": "SFCNT", "unit": null, "value": 19.0}], "event-type": "SFIN", "event-uid": "9f4023e3-409c-4f91-a70b-d65f80898b4c", "properties": {}}, {"location-uid": "1345-crosswalk", "device-uid": "1345-1212", "timestamp": 1461951821515, "measures": [{"tag": "SFCNT", "unit": null, "value": 19.0}], "event-type": "SFOUT", "event-uid": "782ae6a5-32d8-4af4-ac3d-585a20b2d873", "properties": {}}, {"location-uid": "1345-crosswalk", "device-uid": "1345-1212", "timestamp": 1461951835557, "measures": [{"tag": "SFCNT", "unit": null, "value": 21.0}], "event-type": "SFIN", "event-uid": "9fda7527-26a6-4ee5-831e-f6bc689990f7", "properties": {}}, {"location-uid": "1345-crosswalk", "device-uid": "1345-1212", "timestamp": 1461951855559, "measures": [{"tag": "SFCNT", "unit": null, "value": 21.0}], "event-type": "SFOUT", "event-uid": "7d451e2f-f667-496c-957a-e749d6be399e", "properties": {}}, {"location-uid": "1345-crosswalk", "device-uid": "1345-1212", "timestamp": 1461951873577, "measures": [{"tag": "SFCNT", "unit": null, "value": 18.0}], "event-type": "SFIN", "event-uid": "c357c4ce-0e6b-4642-aceb-f2120d85f24e", "properties": {}}]}, "page": {"totalPages": 2754, "totalElements": 55065, "number": 0, "size": 20}}, {"_links": {"self": {"href": "http://ie-pedestrian.run.aws-usw02-pr.ice.predix.io/v1/assets/1000000028/events?event-types=SFIN%2CSFOUT&start-ts=1461951548470&end-ts=9999999999999"}, "next-page": {"href": "http://ie-pedestrian.run.aws-usw02-pr.ice.predix.io/v1/assets/1000000028/events?event-types=SFIN&event-types=SFOUT&start-ts=1461951918599&end-ts=9999999999999&size=20"}}, "_embedded": {"events": [{"location-uid": "1347-crosswalk", "device-uid": "1347-1215", "timestamp": 1461951552186, "measures": [{"tag": "SFCNT", "unit": null, "value": 16.0}], "event-type": "SFIN", "event-uid": "4f5192fa-31b0-4442-931b-8253a6c3fbc0", "properties": {}}, {"location-uid": "1347-crosswalk", "device-uid": "1347-1215", "timestamp": 1461951567190, "measures": [{"tag": "SFCNT", "unit": null, "value": 16.0}], "event-type": "SFOUT", "event-uid": "c627ca93-471e-4891-9763-560e92875f16", "properties": {}}, {"location-uid": "1347-crosswalk", "device-uid": "1347-1215", "timestamp": 1461951590281, "measures": [{"tag": "SFCNT", "unit": null, "value": 17.0}], "event-type": "SFIN", "event-uid": "5210baf0-47d4-452e-a5d9-2723bcedd4d1", "properties": {}}, {"location-uid": "1347-crosswalk", "device-uid": "1347-1215", "timestamp": 1461951615285, "measures": [{"tag": "SFCNT", "unit": null, "value": 17.0}], "event-type": "SFOUT", "event-uid": "6c3bc15f-a622-4cdd-aa8d-c46bf60d2328", "properties": {}}, {"location-uid": "1347-crosswalk", "device-uid": "1347-1215", "timestamp": 1461951640343, "measures": [{"tag": "SFCNT", "unit": null, "value": 17.0}], "event-type": "SFIN", "event-uid": "a14e9b06-9d1a-4a52-892b-9e5352ea8867", "properties": {}}, {"location-uid": "1347-crosswalk", "device-uid": "1347-1215", "timestamp": 1461951665346, "measures": [{"tag": "SFCNT", "unit": null, "value": 17.0}], "event-type": "SFOUT", "event-uid": "3c171832-5bdd-4329-8274-cf0049fac689", "properties": {}}, {"location-uid": "1347-crosswalk", "device-uid": "1347-1215", "timestamp": 1461951689392, "measures": [{"tag": "SFCNT", "unit": null, "value": 15.0}], "event-type": "SFIN", "event-uid": "d6790519-2092-453e-aec3-1b5a398ac6a8", "properties": {}}, {"location-uid": "1347-crosswalk", "device-uid": "1347-1215", "timestamp": 1461951705394, "measures": [{"tag": "SFCNT", "unit": null, "value": 15.0}], "event-type": "SFOUT", "event-uid": "0ce770c0-1d78-4729-9f5b-5e38a03af071", "properties": {}}, {"location-uid": "1347-crosswalk", "device-uid": "1347-1215", "timestamp": 1461951712435, "measures": [{"tag": "SFCNT", "unit": null, "value": 19.0}], "event-type": "SFIN", "event-uid": "1a854f56-b20b-445b-ba1b-6499483b1415", "properties": {}}, {"location-uid": "1347-crosswalk", "device-uid": "1347-1215", "timestamp": 1461951728437, "measures": [{"tag": "SFCNT", "unit": null, "value": 19.0}], "event-type": "SFOUT", "event-uid": "d3c51e15-9f42-47e1-a5fa-f6ab72a2a4cb", "properties": {}}, {"location-uid": "1347-crosswalk", "device-uid": "1347-1215", "timestamp": 1461951754462, "measures": [{"tag": "SFCNT", "unit": null, "value": 16.0}], "event-type": "SFIN", "event-uid": "c1e90294-1e51-467c-a3eb-c3b5ffe13a33", "properties": {}}, {"location-uid": "1347-crosswalk", "device-uid": "1347-1215", "timestamp": 1461951775465, "measures": [{"tag": "SFCNT", "unit": null, "value": 16.0}], "event-type": "SFOUT", "event-uid": "ac63134f-5c6a-4397-81cc-e3068e3087e0", "properties": {}}, {"location-uid": "1347-crosswalk", "device-uid": "1347-1215", "timestamp": 1461951783508, "measures": [{"tag": "SFCNT", "unit": null, "value": 17.0}], "event-type": "SFIN", "event-uid": "6c80ea20-3b0d-4c92-9bac-57c5bd0fda2d", "properties": {}}, {"location-uid": "1347-crosswalk", "device-uid": "1347-1215", "timestamp": 1461951800511, "measures": [{"tag": "SFCNT", "unit": null, "value": 17.0}], "event-type": "SFOUT", "event-uid": "3fd21d95-05be-4479-bf3c-ced1c72351b0", "properties": {}}, {"location-uid": "1347-crosswalk", "device-uid": "1347-1215", "timestamp": 1461951826535, "measures": [{"tag": "SFCNT", "unit": null, "value": 19.0}], "event-type": "SFIN", "event-uid": "7381c226-b45a-4a9b-8d0d-dccf840e6bf2", "properties": {}}, {"location-uid": "1347-crosswalk", "device-uid": "1347-1215", "timestamp": 1461951844539, "measures": [{"tag": "SFCNT", "unit": null, "value": 19.0}], "event-type": "SFOUT", "event-uid": "323a473c-2b29-4894-bcd0-c37a607c3c56", "properties": {}}, {"location-uid": "1347-crosswalk", "device-uid": "1347-1215", "timestamp": 1461951862578, "measures": [{"tag": "SFCNT", "unit": null, "value": 18.0}], "event-type": "SFIN", "event-uid": "a8a362fc-624a-49cf-8493-7ec2dc0ade4d", "properties": {}}, {"location-uid": "1347-crosswalk", "device-uid": "1347-1215", "timestamp": 1461951879580, "measures": [{"tag": "SFCNT", "unit": null, "value": 18.0}], "event-type": "SFOUT", "event-uid": "05340615-f40b-414f-81a1-98840f60c858", "properties": {}}, {"location-uid": "1347-crosswalk", "device-uid": "1347-1215", "timestamp": 1461951900596, "measures": [{"tag": "SFCNT", "unit": null, "value": 16.0}], "event-type": "SFIN", "event-uid": "84119689-7e64-43fe-a983-e7726caecaae", "properties": {}}, {"location-uid": "1347-crosswalk", "device-uid": "1347-1215", "timestamp": 1461951918599, "measures": [{"tag": "SFCNT", "unit": null, "value": 16.0}], "event-type": "SFOUT", "event-uid": "f560ef4f-e0dd-4c34-b616-aa8914323a0f", "properties": {}}]}, "page": {"totalPages": 2762, "totalElements": 55230, "number": 0, "size": 20}}, {"_links": {"self": {"href": "http://ie-pedestrian.run.aws-usw02-pr.ice.predix.io/v1/assets/1000000029/events?event-types=SFIN%2CSFOUT&start-ts=1461951548470&end-ts=9999999999999"}, "next-page": {"href": "http://ie-pedestrian.run.aws-usw02-pr.ice.predix.io/v1/assets/1000000029/events?event-types=SFIN&event-types=SFOUT&start-ts=1461951906606&end-ts=9999999999999&size=20"}}, "_embedded": {"events": [{"location-uid": "1349-crosswalk", "device-uid": "1349-1217", "timestamp": 1461951567234, "measures": [{"tag": "SFCNT", "unit": null, "value": 15.0}], "event-type": "SFIN", "event-uid": "b6b923e3-b789-40bb-a5db-7e44c6e38156", "properties": {}}, {"location-uid": "1349-crosswalk", "device-uid": "1349-1217", "timestamp": 1461951587240, "measures": [{"tag": "SFCNT", "unit": null, "value": 15.0}], "event-type": "SFOUT", "event-uid": "066a4cf0-78ec-411e-b339-be97ee19ec20", "properties": {}}, {"location-uid": "1349-crosswalk", "device-uid": "1349-1217", "timestamp": 1461951594298, "measures": [{"tag": "SFCNT", "unit": null, "value": 15.0}], "event-type": "SFIN", "event-uid": "27b8dfc3-887c-4d5c-99e8-13073a3dbda0", "properties": {}}, {"location-uid": "1349-crosswalk", "device-uid": "1349-1217", "timestamp": 1461951612301, "measures": [{"tag": "SFCNT", "unit": null, "value": 15.0}], "event-type": "SFOUT", "event-uid": "2b533496-58e2-482f-b237-2007120c22af", "properties": {}}, {"location-uid": "1349-crosswalk", "device-uid": "1349-1217", "timestamp": 1461951618318, "measures": [{"tag": "SFCNT", "unit": null, "value": 21.0}], "event-type": "SFIN", "event-uid": "29e67b91-a267-4813-af70-eaf7873f32a7", "properties": {}}, {"location-uid": "1349-crosswalk", "device-uid": "1349-1217", "timestamp": 1461951637321, "measures": [{"tag": "SFCNT", "unit": null, "value": 21.0}], "event-type": "SFOUT", "event-uid": "81ab7a30-ce8b-4a86-9bad-293fd9bfe035", "properties": {}}, {"location-uid": "1349-crosswalk", "device-uid": "1349-1217", "timestamp": 1461951662383, "measures": [{"tag": "SFCNT", "unit": null, "value": 20.0}], "event-type": "SFIN", "event-uid": "36e7a1a5-7c34-44cf-9466-c01773c23306", "properties": {}}, {"location-uid": "1349-crosswalk", "device-uid": "1349-1217", "timestamp": 1461951687386, "measures": [{"tag": "SFCNT", "unit": null, "value": 20.0}], "event-type": "SFOUT", "event-uid": "23736d05-39bc-4c9d-ac6f-a35a49f3d5c3", "properties": {}}, {"location-uid": "1349-crosswalk", "device-uid": "1349-1217", "timestamp": 1461951710415, "measures": [{"tag": "SFCNT", "unit": null, "value": 20.0}], "event-type": "SFIN", "event-uid": "bb18adc8-9169-459e-8214-dacb4b5865d4", "properties": {}}, {"location-uid": "1349-crosswalk", "device-uid": "1349-1217", "timestamp": 1461951725418, "measures": [{"tag": "SFCNT", "unit": null, "value": 20.0}], "event-type": "SFOUT", "event-uid": "aa167b39-9997-44f8-bbb9-f239106a6557", "properties": {}}, {"location-uid": "1349-crosswalk", "device-uid": "1349-1217", "timestamp": 1461951734457, "measures": [{"tag": "SFCNT", "unit": null, "value": 21.0}], "event-type": "SFIN", "event-uid": "cb6c9d42-36dd-4d83-88f2-974efde4aa48", "properties": {}}, {"location-uid": "1349-crosswalk", "device-uid": "1349-1217", "timestamp": 1461951755459, "measures": [{"tag": "SFCNT", "unit": null, "value": 21.0}], "event-type": "SFOUT", "event-uid": "b963294e-f6ea-4e1b-9cf0-eeb1d096d0cf", "properties": {}}, {"location-uid": "1349-crosswalk", "device-uid": "1349-1217", "timestamp": 1461951780488, "measures": [{"tag": "SFCNT", "unit": null, "value": 20.0}], "event-type": "SFIN", "event-uid": "1e1d2d4a-9682-41ba-8219-d1b1a19aa54c", "properties": {}}, {"location-uid": "1349-crosswalk", "device-uid": "1349-1217", "timestamp": 1461951798490, "measures": [{"tag": "SFCNT", "unit": null, "value": 20.0}], "event-type": "SFOUT", "event-uid": "283df471-8efc-4cd5-91f1-50c7fc31ba2a", "properties": {}}, {"location-uid": "1349-crosswalk", "device-uid": "1349-1217", "timestamp": 1461951806530, "measures": [{"tag": "SFCNT", "unit": null, "value": 20.0}], "event-type": "SFIN", "event-uid": "0e38700b-e438-456d-8d1e-93c06c80eb30", "properties": {}}, {"location-uid": "1349-crosswalk", "device-uid": "1349-1217", "timestamp": 1461951828532, "measures": [{"tag": "SFCNT", "unit": null, "value": 20.0}], "event-type": "SFOUT", "event-uid": "b2cb702d-f66e-46f8-ad30-f4c5d87a4a3f", "properties": {}}, {"location-uid": "1349-crosswalk", "device-uid": "1349-1217", "timestamp": 1461951848556, "measures": [{"tag": "SFCNT", "unit": null, "value": 20.0}], "event-type": "SFIN", "event-uid": "f1d3a59b-4440-4c14-86c2-63a2aaa75f64", "properties": {}}, {"location-uid": "1349-crosswalk", "device-uid": "1349-1217", "timestamp": 1461951866559, "measures": [{"tag": "SFCNT", "unit": null, "value": 20.0}], "event-type": "SFOUT", "event-uid": "6f5688db-9cbf-44a3-8b92-a946b3aa5ada", "properties": {}}, {"location-uid": "1349-crosswalk", "device-uid": "1349-1217", "timestamp": 1461951884603, "measures": [{"tag": "SFCNT", "unit": null, "value": 15.0}], "event-type": "SFIN", "event-uid": "8d06912d-514e-4ac7-a150-7406ea7f4b6a", "properties": {}}, {"location-uid": "1349-crosswalk", "device-uid": "1349-1217", "timestamp": 1461951906606, "measures": [{"tag": "SFCNT", "unit": null, "value": 15.0}], "event-type": "SFOUT", "event-uid": "5a876280-7273-4dd0-821e-5b6cb915f5e5", "properties": {}}]}, "page": {"totalPages": 2760, "totalElements": 55194, "number": 0, "size": 20}}]
